<?xml version="1.0" encoding="utf-8"?>
<!-- Generator: Adobe Illustrator 28.1.0, SVG Export Plug-In . SVG Version: 6.00 Build 0)  -->
<svg version="1.1" id="Calque_2" xmlns="http://www.w3.org/2000/svg" xmlns:xlink="http://www.w3.org/1999/xlink" x="0px" y="0px"
	 viewBox="0 0 318.4 233.2" style="enable-background:new 0 0 318.4 233.2;" xml:space="preserve">
<style type="text/css">
	.st0{fill:#1A58A3;}
	.st1{fill:#3AC1CE;}
	.st2{fill:#FFCD6D;}
	.st3{fill:none;}
	.st4{opacity:0.8;}
	.st5{clip-path:url(#SVGID_00000079480970522218008200000006132803898081997484_);}
	.st6{clip-path:url(#SVGID_00000003784842673581060840000003353259630014061697_);}
	.st7{fill:#FFFFFF;}
	.st8{opacity:0.5;}
	.st9{clip-path:url(#SVGID_00000014615082572317025290000005480979530371157437_);}
	.st10{clip-path:url(#SVGID_00000067226422314309560140000009577180148760541350_);}
	.st11{fill:#223164;}
	.st12{fill:none;stroke:#FFFFFF;stroke-width:1.52;stroke-linecap:round;stroke-linejoin:round;}
	.st13{fill:none;stroke:#000019;stroke-width:1.34;stroke-linecap:round;stroke-linejoin:round;}
	.st14{fill:none;stroke:#1958A4;stroke-width:1.47;stroke-miterlimit:10;}
	.st15{fill:none;stroke:#000019;stroke-width:1.47;stroke-linecap:round;stroke-linejoin:round;}
	.st16{clip-path:url(#SVGID_00000083784824746407439840000017162736551405931189_);}
	.st17{fill:#00001A;}
	.st18{fill:#3AC1CE;stroke:#3AC1CE;stroke-miterlimit:10;}
	.st19{fill:#000427;}
	.st20{fill:#1957A5;}
	.st21{fill:#863C2A;}
	.st22{fill:none;stroke:#000019;stroke-width:1.33;stroke-linecap:round;stroke-linejoin:round;}
	.st23{fill:#DE1E34;}
	.st24{fill:none;stroke:#1957A5;stroke-width:2.55;stroke-miterlimit:10;}
	.st25{fill:#222F63;}
	.st26{fill:#F0524B;}
	.st27{clip-path:url(#SVGID_00000110461580728622017320000010875844238713137551_);}
	.st28{clip-path:url(#SVGID_00000090252509313594976160000018014940827969751681_);}
	.st29{clip-path:url(#SVGID_00000098910320558920499170000013136786617251822472_);}
	.st30{fill:none;stroke:#000019;stroke-width:1.53;stroke-linecap:round;stroke-linejoin:round;}
	.st31{clip-path:url(#SVGID_00000163751961980792314190000016481283089388661679_);}
	.st32{fill:none;stroke:#213064;stroke-width:1.53;stroke-linecap:round;stroke-linejoin:round;}
	.st33{fill:none;stroke:#000019;stroke-width:1.42;stroke-linecap:round;stroke-linejoin:round;}
	.st34{fill:none;stroke:#000019;stroke-width:1.29;stroke-linecap:round;stroke-linejoin:round;}
</style>
<g id="Layer_2_00000072282310640085513550000017605637067877401015_">
	<g>
		<g>
			<path class="st0" d="M75.1,197c0,0,2.7,3.8,36.3,5.6c33.5,1.9,49.9-5.4,49.9-5.4s-47.1-20.6-73.1-12C79.7,188,75.1,197,75.1,197
				L75.1,197z"/>
			<path class="st1" d="M160.8,219.3c-3,0-6,0-9-0.1h0c-13.7-0.4-27-1.7-39.8-3.7c-0.9-0.1-1.7-0.3-2.6-0.4
				c-7.2-1.2-14.3-2.7-21.2-4.4l2-9.8l1.5-7.5l1.9-9.4l1-4.9v0h0c0.8-1.2,1.8-2.2,2.9-2.9c0.1-0.1,0.2-0.1,0.3-0.2
				c0.2-0.1,0.5-0.3,0.7-0.4c3.4-1.7,8.1-1.8,13.4-1c0,0,0,0,0,0c2.2,0.3,4.6,0.9,7,1.5c2.5,0.7,5.1,1.5,7.7,2.5
				c0.9,0.3,1.8,0.7,2.7,1c0.3,0.1,0.5,0.2,0.8,0.3c1,0.4,2,0.8,3,1.2c6.1,2.6,11.9,5.4,16.5,7.9l0,0c0.7,0.4,1.4,0.8,2.1,1.1
				c1,0.5,1.9,1.1,2.7,1.5c0,0,0,0,0,0c3.2,1.8,5.2,3,5.2,3l0.1,2.1l0.1,1.2l0.3,6.3l0,0.4l0.5,10.3L160.8,219.3z"/>
			<path class="st0" d="M86.6,104.4c1.5,2.5-1.8,7.2-7.2,10.3c-5.5,3.2-11.1,3.7-12.6,1.1s1.8-7.2,7.2-10.3S85.1,101.8,86.6,104.4
				L86.6,104.4z"/>
			<polygon class="st2" points="62.5,73.5 61.5,76.5 65.2,86.8 75.4,86.8 71.6,76.1 65.7,72.5 			"/>
			<polygon class="st1" points="67.1,60 67.4,68.5 65.3,68.5 64.9,59.6 			"/>
			<path class="st3" d="M60.6,35.5c0-0.1,0.1-0.1,0.1-0.2C60.7,35.4,60.7,35.4,60.6,35.5"/>
			<path class="st3" d="M61.1,35c0,0-0.1,0.1-0.1,0.2C61,35.1,61,35,61.1,35"/>
			<path class="st3" d="M61.7,34.3C61.7,34.3,61.8,34.3,61.7,34.3C61.8,34.3,61.8,34.3,61.7,34.3"/>
			<path class="st3" d="M61.3,34.7c0,0,0.1-0.1,0.1-0.1C61.4,34.7,61.3,34.7,61.3,34.7"/>
			<path class="st3" d="M59.3,37.6c0-0.1,0.1-0.2,0.1-0.2C59.3,37.5,59.3,37.6,59.3,37.6"/>
			<path class="st3" d="M59.5,37.2c0-0.1,0.1-0.2,0.1-0.2C59.6,37,59.5,37.1,59.5,37.2"/>
			<path class="st3" d="M62.1,34c0,0,0.1-0.1,0.1-0.1C62.2,33.9,62.1,34,62.1,34"/>
			<path class="st3" d="M60,36.3c0-0.1,0.1-0.1,0.1-0.2C60.1,36.2,60.1,36.2,60,36.3"/>
			<path class="st3" d="M60.3,35.9c0-0.1,0.1-0.1,0.1-0.2C60.4,35.8,60.3,35.8,60.3,35.9"/>
			<path class="st3" d="M59.8,36.7c0-0.1,0.1-0.1,0.1-0.2C59.8,36.6,59.8,36.7,59.8,36.7"/>
			<path class="st3" d="M63.2,33.3c0.1,0,0.1-0.1,0.2-0.1C63.3,33.2,63.3,33.2,63.2,33.3"/>
			<path class="st3" d="M76.4,46.6c0-0.1,0-0.2,0-0.3C76.4,46.4,76.4,46.5,76.4,46.6"/>
			<path class="st3" d="M76.4,47.2c0-0.1,0-0.2,0-0.3C76.4,47,76.4,47.1,76.4,47.2"/>
			<path class="st3" d="M76.3,45c0,0.1,0,0.1,0,0.2C76.4,45.2,76.4,45.1,76.3,45"/>
			<path class="st3" d="M65,32.7c0,0,0.1,0,0.2,0C65.1,32.6,65,32.6,65,32.7"/>
			<path class="st3" d="M76.4,45.9c0-0.1,0-0.2,0-0.3C76.4,45.8,76.4,45.8,76.4,45.9"/>
			<path class="st3" d="M59,38.3c0.1-0.1,0.1-0.3,0.2-0.4C59.1,38,59,38.2,59,38.3"/>
			<path class="st3" d="M62.5,33.7c0,0,0.1-0.1,0.2-0.1C62.6,33.7,62.5,33.7,62.5,33.7"/>
			<path class="st3" d="M62.8,33.5c0.1,0,0.1-0.1,0.2-0.1C62.9,33.4,62.9,33.5,62.8,33.5"/>
			<path class="st3" d="M63.6,33.1c0.1,0,0.1,0,0.2-0.1C63.8,33,63.7,33,63.6,33.1"/>
			<path class="st3" d="M64.5,32.8c0.1,0,0.1,0,0.2,0C64.6,32.7,64.6,32.7,64.5,32.8"/>
			<path class="st3" d="M64.1,32.9c0.1,0,0.1,0,0.2-0.1C64.2,32.9,64.1,32.9,64.1,32.9"/>
			<path class="st3" d="M58,41.6c0-0.1,0-0.2,0.1-0.3C58.1,41.4,58.1,41.5,58,41.6"/>
			<path class="st3" d="M58.8,38.8c0-0.1,0.1-0.2,0.1-0.3C58.8,38.7,58.8,38.8,58.8,38.8"/>
			<path class="st3" d="M75.9,50.8c0-0.1,0.1-0.2,0.1-0.3C75.9,50.6,75.9,50.7,75.9,50.8"/>
			<path class="st3" d="M76.1,49.6c0-0.1,0-0.2,0.1-0.3C76.2,49.5,76.2,49.5,76.1,49.6"/>
			<path class="st3" d="M76.2,49c0-0.1,0-0.2,0-0.3C76.3,48.9,76.2,48.9,76.2,49"/>
			<path class="st3" d="M75.7,51.3c0-0.1,0.1-0.2,0.1-0.3C75.8,51.1,75.8,51.2,75.7,51.3"/>
			<path class="st3" d="M75.4,52.4c0-0.1,0.1-0.2,0.1-0.3C75.4,52.2,75.4,52.3,75.4,52.4"/>
			<path class="st3" d="M74.9,53.4c0-0.1,0.1-0.2,0.1-0.3C75,53.2,75,53.3,74.9,53.4"/>
			<path class="st3" d="M75.6,51.9c0-0.1,0.1-0.2,0.1-0.3C75.6,51.7,75.6,51.8,75.6,51.9"/>
			<path class="st3" d="M75.2,52.9c0-0.1,0.1-0.2,0.1-0.3C75.2,52.7,75.2,52.8,75.2,52.9"/>
			<path class="st3" d="M76.3,48.5c0-0.1,0-0.2,0-0.3C76.3,48.3,76.3,48.3,76.3,48.5"/>
			<path class="st3" d="M76,50.2c0-0.1,0-0.2,0.1-0.3C76.1,50,76,50.1,76,50.2"/>
			<path class="st3" d="M58.2,41c0-0.1,0-0.2,0.1-0.3C58.2,40.8,58.2,40.9,58.2,41"/>
			<path class="st3" d="M58,42.2c0-0.1,0-0.2,0-0.3C58,41.9,58,42,58,42.2"/>
			<path class="st3" d="M58.3,40.5c0-0.1,0-0.2,0.1-0.3C58.3,40.3,58.3,40.4,58.3,40.5"/>
			<path class="st3" d="M58.4,39.9c0-0.1,0-0.2,0.1-0.3C58.5,39.7,58.4,39.8,58.4,39.9"/>
			<path class="st3" d="M58.6,39.4c0-0.1,0.1-0.2,0.1-0.3C58.6,39.2,58.6,39.3,58.6,39.4"/>
			<path class="st3" d="M76.4,47.8c0-0.1,0-0.2,0-0.3C76.4,47.7,76.4,47.8,76.4,47.8"/>
			<g class="st4">
				<g>
					<defs>
						<rect id="SVGID_1_" x="57.8" y="44.5" width="17.1" height="14"/>
					</defs>
					<clipPath id="SVGID_00000152981722882076538060000000038656658638006444_">
						<use xlink:href="#SVGID_1_"  style="overflow:visible;"/>
					</clipPath>
					<g style="clip-path:url(#SVGID_00000152981722882076538060000000038656658638006444_);">
						<g>
							<defs>
								<rect id="SVGID_00000114773449412202529150000007299814345458164663_" x="57.8" y="44.5" width="17.1" height="14"/>
							</defs>
							<clipPath id="SVGID_00000157268769004078915610000018235671533723182988_">
								<use xlink:href="#SVGID_00000114773449412202529150000007299814345458164663_"  style="overflow:visible;"/>
							</clipPath>
							<g style="clip-path:url(#SVGID_00000157268769004078915610000018235671533723182988_);">
								<path class="st7" d="M70.2,55.5c-5.3,0.6-10.5-4.1-12.4-11.1c0,0.7,0,1.4,0.1,2.1c0.9,7.1,5.7,12.4,10.7,11.8
									c2.7-0.3,4.9-2.2,6.3-5C73.6,54.6,72,55.3,70.2,55.5"/>
							</g>
						</g>
					</g>
				</g>
			</g>
			<path class="st3" d="M57.8,44.3c0-0.1,0-0.2,0-0.3C57.8,44,57.8,44.1,57.8,44.3"/>
			<path class="st3" d="M57.8,43.7c0-0.2,0-0.5,0-0.8C57.8,43.2,57.8,43.5,57.8,43.7"/>
			<path class="st3" d="M57.9,42.7c0-0.1,0-0.2,0-0.3C57.9,42.5,57.9,42.6,57.9,42.7"/>
			<g class="st8">
				<g>
					<defs>
						<rect id="SVGID_00000155142518834221440290000008754720058515210380_" x="57.8" y="32.5" width="18.6" height="23.1"/>
					</defs>
					<clipPath id="SVGID_00000127727690332298185140000004640998339786353591_">
						<use xlink:href="#SVGID_00000155142518834221440290000008754720058515210380_"  style="overflow:visible;"/>
					</clipPath>
					<g style="clip-path:url(#SVGID_00000127727690332298185140000004640998339786353591_);">
						<g>
							<defs>
								<rect id="SVGID_00000007418105533459270850000003462022446414881449_" x="57.8" y="32.5" width="18.6" height="23.1"/>
							</defs>
							<clipPath id="SVGID_00000159453845701110146170000004984862734219485086_">
								<use xlink:href="#SVGID_00000007418105533459270850000003462022446414881449_"  style="overflow:visible;"/>
							</clipPath>
							<g style="clip-path:url(#SVGID_00000159453845701110146170000004984862734219485086_);">
								<path class="st7" d="M57.8,44.5c0-6.2,3.2-11.4,7.7-11.9c5.1-0.6,9.9,4.7,10.7,11.8c0.4,3.4-0.1,6.5-1.4,9
									c-1.3,1.2-2.9,2-4.7,2.2C64.9,56.2,59.8,51.4,57.8,44.5"/>
							</g>
						</g>
					</g>
				</g>
			</g>
			<path class="st0" d="M78.1,44.2c-1-8.6-6.8-14.9-12.9-14.2c-0.2,0-0.5,0.1-0.8,0.1c0,0,0,0,0,0c-0.2,0-0.4,0.1-0.6,0.1l-0.1,0
				c-0.3,0.1-0.6,0.2-0.9,0.3c-0.8,0.4-1.5,0.8-2.2,1.4c-0.2,0.2-0.4,0.3-0.5,0.5c-0.2,0.2-0.5,0.5-0.7,0.8
				c-0.3,0.4-0.6,0.8-0.9,1.3c-0.2,0.3-0.4,0.6-0.6,0.9c0,0,0,0,0,0c-0.3,0.5-0.5,1-0.8,1.6c-0.1,0.2-0.1,0.4-0.2,0.6
				c-0.1,0.2-0.1,0.4-0.2,0.6c-0.1,0.4-0.2,0.8-0.3,1.2c0,0.2-0.1,0.4-0.1,0.6c0,0.2-0.1,0.4-0.1,0.6c-0.1,0.7-0.2,1.3-0.2,2
				c-0.1,1.3,0,2.6,0.1,4c0.8,6.6,4.4,12,8.9,13.7c0.7,0.3,1.4,0.5,2.2,0.5c0.6,0.1,1.2,0.1,1.8,0C75.1,60.3,79.2,52.7,78.1,44.2z
				 M76.4,47.2c0,0.2,0,0.4,0,0.6c0,0.1,0,0.2,0,0.3c0,0.1,0,0.2,0,0.3c0,0.2,0,0.4-0.1,0.6c0,0.2,0,0.4-0.1,0.6
				c0,0.2-0.1,0.4-0.1,0.6c0,0.1,0,0.2-0.1,0.3c0,0.1,0,0.2-0.1,0.3c0,0.2-0.1,0.4-0.2,0.5c0,0.2-0.1,0.4-0.2,0.5
				c0,0.2-0.1,0.3-0.2,0.5c-0.1,0.2-0.1,0.3-0.2,0.5c-0.1,0.2-0.1,0.3-0.2,0.5c-1.4,2.8-3.6,4.7-6.3,5C63.6,59,58.8,53.7,58,46.6
				c-0.2-1.3-0.2-2.7,0-3.9c0-0.2,0-0.5,0.1-0.7c0-0.2,0.1-0.5,0.1-0.7c0-0.1,0-0.2,0.1-0.2c0-0.2,0.1-0.4,0.1-0.6c0,0,0,0,0-0.1
				c0-0.2,0.1-0.3,0.1-0.5c0.1-0.2,0.2-0.5,0.2-0.7c0.1-0.2,0.1-0.4,0.2-0.6c0-0.1,0.1-0.2,0.1-0.3c0-0.1,0.1-0.2,0.1-0.2
				c0.1-0.2,0.2-0.4,0.3-0.6c0.4-0.7,0.8-1.4,1.3-2c0.6-0.7,1.2-1.3,2-1.8c0.3-0.2,0.7-0.4,1-0.6c0,0,0.1,0,0.1,0
				c0.2-0.1,0.3-0.1,0.5-0.2c0.1,0,0.2-0.1,0.4-0.1c0.1,0,0.2-0.1,0.4-0.1c0,0,0,0,0.1,0c0,0,0,0,0,0c0.2,0,0.3,0,0.5-0.1
				c5.1-0.6,9.9,4.7,10.7,11.8c0,0.2,0,0.4,0.1,0.6c0,0,0,0.1,0,0.1c0,0.2,0,0.5,0.1,0.7v0.1c0,0.2,0,0.4,0,0.7
				C76.4,46.8,76.4,47,76.4,47.2z"/>
			<path class="st11" d="M64.5,30.1L64.5,30.1C64.5,30.1,64.5,30.1,64.5,30.1L64.5,30.1L64.5,30.1z"/>
			<polyline class="st3" points="71.3,60.4 71.3,60.4 71.2,60.4 71.3,60.4 			"/>
			<path class="st1" d="M62,30.7L62,30.7L62,30.7c0.1,0,0.2-0.1,0.3-0.1l2-0.5c-5.5,1.4-9.1,8.6-8.2,16.7c1,8.6,6.8,14.9,12.9,14.2
				c0,0,0,0,0,0l-0.7,0.2c-0.2,0.1-0.4,0.1-0.7,0.2l0,0c-0.3,0.1-0.5,0.1-0.8,0.1c-6.1,0.7-11.8-5.6-12.9-14.2
				C52.9,39.3,56.5,32.1,62,30.7L62,30.7z"/>
			<path class="st12" d="M74.1,41.4c0,0-0.9-4.1-4.8-5.5"/>
			<path class="st1" d="M67.2,89.6L67.2,89.6c1.3-0.1,2.3-1.1,2.2-2.4l-0.7-19.6c0-0.4-0.4-0.8-0.8-0.8l-3,0.1
				c-0.4,0-0.8,0.4-0.8,0.8l0.7,19.6C64.9,88.6,66,89.6,67.2,89.6L67.2,89.6z"/>
			<path class="st2" d="M70.2,108.2c0,0-10.7-8.4-12.7-13.4c-1.9-5,2.1-6.1,2.1-6.1s-1.5-4.1,1.3-5.6c0,0-1.7-2.2-2.2-4.8
				s2.2-3.7,3.4-3.3c0,0-1.8-2-1.8-3.3s2.4-4.5,4.7-2.5c2.3,2,4.1,3.9,2.4,5.2c-1.7,1.3-5.3,0.7-5.3,0.7s4.3,3.3,5.8,4.7
				s3.1,3,3.6,4.7s-0.7,3.4-2.7,2.3c0,0,1.3,1.5,1.9,2.7c1.4,2.8,2.1,4.3,0.7,5.2c-0.7,0.4-2.7-0.9-2.7-0.9s0.9,1.6,0.4,2.6
				c-0.5,0.9-2.3,1.3-4.6-0.3c-2.2-1.6,1.9,4.8,1.9,4.8L70.2,108.2L70.2,108.2z"/>
			<path class="st2" d="M82.4,100.8l-3.1-18.1c0,0-6.4-9-7.1-10.9c-0.7-1.9,0.2-4.2-1.2-4.9s-3.7,3.1-2.4,8.8
				c1.2,5.8,3.1,8.2,3.1,8.2l-4,2.5l-5.4,10.5l8,11.4L82.4,100.8L82.4,100.8z"/>
			<path class="st13" d="M59.6,88.7c0,0,1.7-0.9,2.8-0.4s6.2,5.5,6.2,5.5"/>
			<path class="st13" d="M68.7,86.8c0,0-2.8-2-4.6-3.1c-1.8-1.1-3.2-0.5-3.2-0.5"/>
			<polygon class="st2" points="70,107.7 83.6,149.5 97.2,137 82.4,100.8 			"/>
			<path class="st1" d="M139.9,92.9L102.4,135l-16.1-31.2l-0.1,0.1c0.2,0.2,0.3,0.3,0.4,0.6c1.5,2.5-1.8,7.2-7.2,10.3
				s-11.1,3.7-12.6,1.1c0-0.1-0.1-0.1-0.1-0.1c0.6,2.8,8.6,37.6,21.5,57.7c13.5,20.9,54.3-11.9,54.3-11.9l18.7-48.8L139.9,92.9
				L139.9,92.9z"/>
			<line class="st13" x1="61.5" y1="80.5" x2="66" y2="84.9"/>
			<path class="st13" d="M64.4,96.1c2.2,1.6,4.1,1.2,4.6,0.3s-0.4-2.6-0.4-2.6s2,1.3,2.7,0.9c1.4-0.9,0.8-2.4-0.7-5.2
				c-0.6-1.2-1.9-2.7-1.9-2.7c2.1,1.1,3.2-0.6,2.7-2.3s-2.1-3.3-3.6-4.7S62.1,75,62.1,75s3.6,0.6,5.3-0.7l0.8-0.7
				c0,0,0,4.6,4.1,10.7"/>
			<line class="st13" x1="64.4" y1="96.1" x2="60.5" y2="93.3"/>
			<polygon class="st2" points="130.9,83.3 126.1,62 119.4,62.2 140.7,29.9 151.4,79.3 			"/>
			<path class="st2" d="M110.8,69c2.6,1,16-3.9,19.1-4.4c3.1-0.5,19.8-19.8,18.4-29.3c-2.6-18-6.7-27-21.2-23.6
				c-18.3,4.3-19.9,7.6-20.5,12.4c-0.6,4.8-0.2,15.8-0.2,15.8s-6.9,10.9-6.8,12l5.5,2.1C106.9,63.8,108.3,68.1,110.8,69L110.8,69z"
				/>
			<path class="st0" d="M106.6,24.2c5.6,1.3,22.9-2,22.9-2c-3.2,10.7-1.4,18.3-1.4,18.3s5.8-2.9,7.7-0.2c1.5,2.1,1.9,4.8,2.6,7.6
				c2.1,8.8,10,14.7,10,14.7s-0.1-3.4,3-8.8c3.1-5.4,6.8-8.5,9.2-12.2c3.1-4.7,8.9-24.8-5.8-32.8c-5.4-3-14.5-0.2-15.6-2.6
				s1.1-4,0-4.6c-5.6-2.9-19.8,7.7-26.7,4.5c-1.8-0.8-1.8-7.1-1.7-6.1s-1.5,3-4.2,5.7c-2.8,2.7-2,9.7-2,9.7s-1.6-1.1-2-2.1
				c-0.8-1.8-3.4-3.4-4.8-4.1c-0.2-0.1-0.4,0.1-0.3,0.2c0.1,0.7,0.9,2.3,1,6.5C98.3,22.9,103.7,23.5,106.6,24.2L106.6,24.2z"/>
			<path class="st14" d="M110.7,7.7c7.3-7.6,14.8-0.6,24.2-5.7"/>
			<path class="st14" d="M136.5,9.1c0.6,0.2,2.8-4.3,9.4-2.9c9.8,2.1,12.2,5.6,12.2,5.6"/>
			<path class="st2" d="M138.9,33c3.4,1.8,4.4,6.5,2.4,10.4s-6.5,5.8-9.9,4s-4.4-6.5-2.4-10.4S135.5,31.2,138.9,33L138.9,33z"/>
			<path class="st15" d="M132.8,43.6c0,0-0.4-3.6,3.4-7.4"/>
			<path class="st15" d="M132.8,42.6c0,0,2-1.4,4.6-0.2"/>
			<path class="st15" d="M106.4,58c0,0,3-0.6,4.8-1.4"/>
			<path class="st1" d="M97.6,9.4c-0.1,0-0.2,0-0.3,0.1c-0.1,0.2,0.2,0.6,0.2,0.8c0.5,1.2,0.8,2.4,0.9,3.7c0.2,1.6,0.1,3.3,0.6,4.9
				c1,3.4,4.5,4.4,7.5,5.3c-1.7-0.2-3.4-0.4-5-1.1c-1.8-0.8-3.2-2.6-3.6-4.5c-0.3-1.5-0.2-3-0.2-4.4c-0.1-1.2-0.2-2.5-0.5-3.7
				c0-0.3-0.2-0.7,0-1C97.4,9.3,97.6,9.3,97.6,9.4L97.6,9.4z"/>
			<path class="st1" d="M110.7,0.1c0.1,0.8-0.3,1.5-0.7,2.1c-0.4,0.6-0.8,1.2-1.3,1.8c-0.8,1.1-2.1,2.1-2.7,3.2
				c-1.3,2.6-1.4,5.5-1.6,8.3c-0.7-3.4-0.7-8.1,2.2-10.5c1-1,2.1-2,3-3.1C110.1,1.4,110.6,0.9,110.7,0.1L110.7,0.1z"/>
			<path class="st1" d="M139.1,1.7c0.9,0.4,0.4,1.7,0.2,2.4c-0.2,0.8-0.2,1.4-0.2,2.2c-1.1-0.9-0.9-2.5-0.2-3.6
				C139.1,2.3,139.3,2.1,139.1,1.7L139.1,1.7z"/>
			<path class="st1" d="M106.5,40c-0.3-2.6-0.4-5.3-0.4-7.9c0.1-2.6,0.2-5.3,0.6-7.9c0.3,2.6,0.4,5.3,0.4,7.9
				C107,34.7,106.9,37.4,106.5,40L106.5,40z"/>
			<path class="st1" d="M106.5,40c-1.8,4.2-4.1,8.3-6.4,12.2l-0.2-0.6c1.8,0.8,3.6,1.6,5.3,2.5c-2.1-0.5-4.1-1.2-6.1-1.9
				C101.3,48,103.7,43.9,106.5,40L106.5,40z"/>
			<polygon class="st1" points="126.8,65.4 134.8,62.7 128.5,73 			"/>
			<line class="st15" x1="105.2" y1="52.7" x2="106.4" y2="53.5"/>
			<path class="st7" d="M118.3,36.8c0,0-1.9,6.9-9.8,3C108.5,39.8,111.3,32.5,118.3,36.8L118.3,36.8z"/>
		</g>
		<g>
			<defs>
				<path id="SVGID_00000121275956816236107450000017863406337101032599_" d="M114.1,35.4c-4,0-5.6,4.4-5.6,4.4c7.8,3.9,9.8-3,9.8-3
					C116.7,35.8,115.3,35.4,114.1,35.4L114.1,35.4"/>
			</defs>
			<clipPath id="SVGID_00000168814689258975877600000007986216559757348231_">
				<use xlink:href="#SVGID_00000121275956816236107450000017863406337101032599_"  style="overflow:visible;"/>
			</clipPath>
			<g style="clip-path:url(#SVGID_00000168814689258975877600000007986216559757348231_);">
				<path class="st17" d="M109.4,38.5c-0.4-1.5,0.4-2.9,1.6-3.2c1.2-0.3,2.6,0.7,2.9,2.2c0.4,1.5-0.4,2.9-1.6,3.2
					C111.1,41,109.8,40,109.4,38.5"/>
			</g>
		</g>
		<line class="st15" x1="110.2" y1="34.3" x2="112.3" y2="32.7"/>
		<g>
			<path class="st15" d="M118.3,36.8c0,0-6.6-4.5-9.8,3"/>
			<path class="st18" d="M111.5,94.4C123.1,83,126.7,80.5,134.9,80s28.5-2.9,38.1,5.2s15.5,32.5,6.8,52c-3,6.6-8.2,16.6-11.5,22.4
				c-4.5,7.8-4.6,32.9-4.6,32.9l-75.4-19.1c0,0,2.9-18.2,4.9-34C96.1,116,107.5,98.3,111.5,94.4"/>
			<polyline class="st18" points="126.1,82.9 124.3,75.7 153.7,68.1 157.9,81.1 127,81.8 			"/>
			<path class="st0" d="M44.2,130.7c3.3-6.4,6.9-9.6,10.9-7.5c4,2.1,5.8,10.7,2.5,17.1c-3.3,6.4-9,10.8-13,8.7
				S40.9,137.1,44.2,130.7L44.2,130.7z"/>
			<path class="st2" d="M29.1,103.8c0,0-12.7-7.7-17.1-11.3s-9.7-7.3-11.6-5.3s4.3,7,8.4,11S24,111.4,24,111.4l8.2-3L29.1,103.8
				L29.1,103.8z"/>
			<path class="st2" d="M52.2,124.2l-20-19.6c-1.2-1.1-3-1.3-4.3-0.4l-15,9.8c-1.9,1.2-2.5,3.8-1.3,5.7l1.7,2.8c0,0-0.9,1.4,0.6,2.8
				c1.6,1.4,3.8,1.9,3.8,1.9s0,2.3,2.9,3.1c1.3,0.4,2.8,0.8,4,1.1c2,0.6,2.6,0.5,4.6,0.3c0.2,0,0.4-0.1,0.5-0.1c2,0,1-1.6,0.9-2.1
				c0,0,3.6,3.3,7.6,6.5c3.5,2.8,10.1,2.3,10.1,2.3L52.2,124.2L52.2,124.2z"/>
			<line class="st13" x1="23.2" y1="111.8" x2="13.2" y2="122.5"/>
			<path class="st13" d="M17.6,127.2c0,0,0.1-0.6,1.7-3.2c1.5-2.3,6.4-7.9,6.4-7.9"/>
			<path class="st13" d="M31.6,130.7l-2-2.4c-0.5-0.6-1.2-1-2-1.1l-1.6-0.2l0.8-2.6"/>
			<polygon class="st2" points="52.2,124.2 95.8,142 89,163.1 44.2,137.2 			"/>
			<path class="st18" d="M162.6,88.9c-6.9,0-20.5,12-27.7,22.4c-7.2,10.4-16.8,26.2-27.8,26.8c-5.8,0.3-19.6-4.8-31.5-9.4
				c-4.8-1.8-9.3-3.6-12.8-4.8c-4.3-1.5-9-1.2-9.1-1.2c0.5,0.1,1,0.3,1.4,0.5c4,2.1,5.8,10.7,2.5,17.1s-9,10.8-13,8.7
				c-1.1-0.6-1.4-1.2-2.2-2.7c0.8,1.7,1.6,3.5,3.4,4.4c3.7,1.9,9.5,5.8,16.2,9.9c9.1,5.6,19.7,11.6,28.4,13.8
				c20.2,5,41.3,5.9,44.4,5.2c3.2-0.8,26.2-6.4,33.4-20S169.5,88.9,162.6,88.9"/>
			<path class="st18" d="M135.5,121l-24.6,18c0,0,8.6,1.8,12,1.7C122.8,140.8,130.8,129.6,135.5,121"/>
			<line class="st13" x1="29.6" y1="103.1" x2="18.6" y2="109.7"/>
			<path class="st18" d="M96.8,131.5c0,0-4.3,44.8-15.4,54.5c-7.3,6.4-6.2,11-6.2,11c27.4-12.8,93.6,10.2,93.6,10.2l-4.4-34.4
				C164.3,172.8,96.8,131.5,96.8,131.5z"/>
			<path class="st15" d="M87.4,132.8c9.9,3.9,36.3,9.1,41.1,8.7"/>
			<path class="st15" d="M141.1,110.8c0,0-6.2,12.7-18.3,30"/>
			<path class="st15" d="M152.1,172.2c4.9-3.1,10.1-5.7,15.9-12.6c0,0,18.9-27.6,16.1-46.8"/>
			<path class="st15" d="M80,171.1c0,0,26.3,7.7,47.9,7.4c11.9-0.2,19.4-4.2,19.4-4.2"/>
			<path class="st0" d="M112,215.4c-0.9-0.1-1.7-0.3-2.6-0.4l1.8-6.5L112,215.4z"/>
		</g>
	</g>
	<g>
		<g>
			<path class="st19" d="M185.7,200.2l30.9,14.2c-10.7,2-21.9,3.3-33.3,4.1c-0.7,0-1.3-0.1-2-0.2v0c-2.4-0.2-4.8-0.5-7.2-0.9
				c-4.5-0.7-9-1.5-13.5-2.7c-3.6-1-7.2-2.1-10.6-3.5c-3.3-1.3-6.3-2.6-9.1-3.9c-3.6-1.6-6.7-3.2-9.5-4.7c-5.7-3.1-9.8-5.9-12.3-7.8
				c-2.3-1.7-3.3-2.7-3.3-2.7c4.3-3.2,14.2-3.5,24.7-2.5c3.5,0.3,7.1,0.8,10.6,1.3c1.1,0.2,2.3,0.3,3.4,0.5c0,0,0,0,0,0
				c4.7,0.7,9,1.6,12.5,2.3c5.5,1.1,9.1,2,9.1,2L185.7,200.2z"/>
			<path class="st20" d="M308.9,80.5c6.2,2.4,10.4,6.5,9.4,9c-1,2.5-6.8,2.6-13,0.1c-6.2-2.4-10.4-6.5-9.4-9
				C296.8,78.1,302.6,78,308.9,80.5L308.9,80.5z"/>
			<path class="st21" d="M298,74.2c0,0-1.9-5.4-5.3-10.3c-3.5-5-3.8-5.4-4.3-9.5s-1-17.5-0.6-20.4c0.3-2.9,2.2-2.7,3.2,1
				c1,3.7,1.5,9.8,1.5,9.8s1.9-6.4,2.6-9.5s1.9-5.2,3.2-3.4s0.6,4.4,0.6,4.4s1.4-0.5,2.4,0.6c1,1.1,0.1,6.6,0.1,6.6s1.6,0.2,1.4,3.7
				c-0.2,3.5-1,10.8-1,10.8s6.3,5.3,7.4,10.2c1.1,4.9,1,8.1,0.1,10.6C308.1,81.3,299.2,79,298,74.2L298,74.2z"/>
			<path class="st22" d="M295.3,60.5c0,0-2.4-5.5-4.4-10.8c-2.1-5.3,0.2-7.3,2.8-4.4c2.6,2.9,3.9,7.6,7.9,12.8"/>
			<line class="st22" x1="298.8" y1="36.2" x2="296" y2="48.8"/>
			<line class="st22" x1="301.2" y1="43.5" x2="299.3" y2="54.5"/>
			<polygon class="st21" points="298.8,74.2 295.3,88.8 306.3,94.8 309.7,75.5 			"/>
			<path class="st23" d="M305.3,89.6c-5.6-2.2-9.6-5.7-9.6-8.2l-23,49.3L252.6,108l-27.2,7l-9.2,34.9c0,0,63.4,35.7,74.4,24.1
				c11.6-12.4,27.8-84.4,27.8-84.4C317.3,92,311.5,92,305.3,89.6L305.3,89.6z"/>
			<path class="st20" d="M229.6,183.6l-0.6,2.2v0l-7.4,27.6c-1.5,0.3-3.1,0.6-4.6,0.9v0c0,0.1,0,0.2-0.1,0.2l-0.3-0.2h0
				c-10.7,2-21.9,3.3-33.3,4.1c-0.7,0.1-1.4,0.1-2,0.1c-2,0.1-4,0.2-6,0.3c-4.6,0.2-9.3,0.3-14,0.3h-0.5c-3,0-6,0-9-0.1h0l-16-3.5
				l5.1-8.2l3.8-6.1l0.6-1l2.2-3.6l2.4-3.9l1.1-1.8l0.6-1l0.3-0.5l4.2-6.8l1.8-2.8l4.9-7.9l2.9-4.6l0,0v0l1.3-2l4.8,1.4l5,1.5
				l0.8,0.2l8.5,2.5l0.4,0.1l5.5,1.6l34.9,10.2L229.6,183.6z"/>
			<path class="st24" d="M251.9,44.4c0,0,7.7,8.1,4.2,13.9c-3.5,5.8-12.3,9.6-12.3,9.6"/>
			<path class="st24" d="M248.1,64.8c1.7,6.7-0.2,13.6-10.8,14.5c-6.7,0.6-1.4,9.5-1.4,9.5"/>
			<path class="st20" d="M233.9,14.6c-12.6-3.4-16,4.2-33.4,5c0,0-11.8,8-19.8,21.5c0,0-8.3-3-12,6.4c-3.8,9.6-18.1,7.3-11.2,21.1
				c0,0,0.1,0.7-2.7,1.8c-1.3,0.5-4.8,0.8-6.3,1.5c-1.6,0.8-1.9,3-3.6,4.1c-2.8,1.8-7.7,2.7-9.5,5.5c-6,9.4-13.6,9.8-11,2
				c0,0-5.5,8.2,0.1,8.9c4.4,0.5,12.4-0.7,18.5-1.6c0,0-4.6,10.8-13.4,3.5c0,0,8.9,13.4,29.9,13.2c16.3-0.2,50.5-3.1,67.2-12.9
				c3.5-2.1,11.1-3.9,13.6-6.7c1.8-1.9,0.9-5.9,1.2-6.8c0.6-1.8,4.5-3.7,5-5.5c0.4-1.7,0.4-5.4,1-6.9c0.4-1.1,2.6-2.3,3.4-3.4
				c1.4-1.8-0.2-4.6,1.1-5.8c3.6-3.3,4.5-7.2,3.1-10.2c-0.8-1.6-1.9-3.6-2.5-5.6c-0.6-2.3,1.4-7.5,0.3-9.8c-1-2-4.5-2-5.8-3.9
				c-0.9-1.3,0.8-5.1-0.2-6.3c-1.9-2.3-4.5-1.6-6.8-3.2C238,18.8,236.6,15.4,233.9,14.6L233.9,14.6z"/>
			<path class="st24" d="M245.2,24.6c0,0,3.9-0.1,3.8,3.2s0.9,7,0.9,7"/>
			<path class="st25" d="M147.9,89.5c0,0-13.8,16.8-17.9,3.3c0,0-2.1,4.8,0.8,7.7c7.4,7.2,25.2,0.3,30.7-3
				C169.8,92.7,147.9,89.5,147.9,89.5L147.9,89.5z"/>
			<path class="st25" d="M222.7,49.8c0,0-11.1-11.2-9.7,3.3c0.8,8.2-5.5,4.7-8.6,7.1c-1.7,1.3-1.6,3.8-3.2,5
				c-1.6,1.2-5.7,1.1-7.5,1.9c-2.3,0.9-3.7,4.2-6.9,3.3c-4.6-1.3-10.4,2.1-6.9,7.7c0,0-5.9,0.1-6.2-4.3c-0.4-4.7,3.4-6.8,6.2-9
				c0,0-5.6,1.9-7,3c-4,3.3-2.2,10.2-6.7,11.9c-2,0.7-9.2-0.5-12.9,0.8c-3.6,1.3-4,6.4-0.1,7.3c0,0-4.6,1.4-6.9-0.9
				c-2.8-2.9-0.2-6.6-0.2-6.6c-0.9,1.6-5.9,2.6-8.4,6c-4.2,5.9-20.4,8-13.3-3c0,0-8.2,6.8-0.8,10.6c3,1.5,6.8,1.5,10.8,0.5
				c1.5-0.4,6.1-2.9,7.7-3.3c3-0.7,6,1.4,9.2,0c16.2-7.2,59.4-7.3,59.4-7.3l-2.9,1c0,0,15.4,18,21.4,6.5c0,0,1-0.1,2.3-0.9
				c0.6-0.4-0.7-2,0.3-4.2c0.8-1.8,3.4-1,2.9-3.8c-1-4.9-0.3-6.1,0.4-5.8c2.1,1.1,1,3,1,3c4.2-2.3,1.6-4.1,0.9-7.2
				c-1.4-6.6,7.8-16.7,7.8-16.7L222.7,49.8L222.7,49.8z"/>
			<polygon class="st21" points="196.8,79.6 219.1,79.6 230,88.8 242.5,105.4 231.7,116.8 194.3,108.8 			"/>
			<polygon class="st21" points="206.9,86.6 225.1,91.8 234.7,62.3 216.7,57.1 			"/>
			<polygon class="st26" points="233.1,67.8 221.6,64.3 228.5,81.3 			"/>
			<path class="st21" d="M212.9,56.2c0,0-0.1,7,9.4,10.2c4.5,1.5,9.5,2.4,13.6,3c4.8,0.7,9.5-2.1,11.3-6.6c0.9-2.5,1.9-5.3,2.6-8.4
				c2.1-8.6-1.8-13.4-4.6-19.7s-6.9-12-16-12.8c-15.1-1.4-20,9.2-18.2,18.9C212.6,50.5,212.6,47,212.9,56.2L212.9,56.2z"/>
		</g>
		<g>
			<defs>
				<path id="SVGID_00000059988692578436360210000010492826596952372105_" d="M210.1,38.3c1.7,9.7,3.3,8.3,3.6,17.5
					c0,0-1,7.4,8.5,10.6c9.5,3.2,21.5,3.8,21.5,3.8s3.9-7.2,5.9-15.8S248,41,245.2,34.7s-6.2-11.8-16-12.8c-1.2-0.1-2.4-0.2-3.5-0.2
					C213.2,21.6,208.5,29.4,210.1,38.3"/>
			</defs>
			<clipPath id="SVGID_00000116929302308042710890000008143446290267966875_">
				<use xlink:href="#SVGID_00000059988692578436360210000010492826596952372105_"  style="overflow:visible;"/>
			</clipPath>
			<g style="clip-path:url(#SVGID_00000116929302308042710890000008143446290267966875_);">
				<path class="st7" d="M239.7,36.6c0,0,4.3,4.8,8-0.3C247.7,36.3,242.5,30.1,239.7,36.6"/>
			</g>
		</g>
		<g>
			<defs>
				<path id="SVGID_00000021118921000633139500000014344813739404664252_" d="M239.7,36.6c0,0,3.7,4,6.9,1c-0.5-1-1-2-1.4-3
					c-0.1-0.2-0.2-0.5-0.3-0.7c-0.4-0.2-0.9-0.3-1.4-0.3C242.3,33.6,240.9,34.4,239.7,36.6"/>
			</defs>
			<clipPath id="SVGID_00000075138143350553131200000017335533879855692686_">
				<use xlink:href="#SVGID_00000021118921000633139500000014344813739404664252_"  style="overflow:visible;"/>
			</clipPath>
			<g style="clip-path:url(#SVGID_00000075138143350553131200000017335533879855692686_);">
				<path class="st17" d="M246.7,35.9c-0.3-1.5-1.6-2.6-2.9-2.3c-1.3,0.2-2.1,1.7-1.8,3.3c0.3,1.5,1.6,2.6,2.9,2.3
					C246.2,38.9,247,37.4,246.7,35.9"/>
			</g>
		</g>
		<g>
			<defs>
				<path id="SVGID_00000032633406676564246800000015635883338109260675_" d="M210.1,38.3c1.7,9.7,3.3,8.3,3.6,17.5
					c0,0-1,7.4,8.5,10.6c9.5,3.2,21.5,3.8,21.5,3.8s3.9-7.2,5.9-15.8S248,41,245.2,34.7s-6.2-11.8-16-12.8c-1.2-0.1-2.4-0.2-3.5-0.2
					C213.2,21.6,208.5,29.4,210.1,38.3"/>
			</defs>
			<clipPath id="SVGID_00000145766666903858879790000017149264209704967346_">
				<use xlink:href="#SVGID_00000032633406676564246800000015635883338109260675_"  style="overflow:visible;"/>
			</clipPath>
			<g style="clip-path:url(#SVGID_00000145766666903858879790000017149264209704967346_);">
				<path class="st30" d="M239.7,36.6c0,0,3-6.5,8-0.3"/>
			</g>
		</g>
		<polygon class="st26" points="234.7,45.9 239.3,45 235.3,33.2 		"/>
		<path class="st7" d="M219.8,38.4c0,0,5.3,6.3,11.6-1.5C231.3,36.9,225.3,30.3,219.8,38.4L219.8,38.4z"/>
		<g>
			<defs>
				<path id="SVGID_00000070815667604246308700000007106822925793278600_" d="M219.8,38.4c0,0,5.3,6.3,11.6-1.5c0,0-2.3-2.6-5.4-2.6
					C224.1,34.3,221.9,35.3,219.8,38.4"/>
			</defs>
			<clipPath id="SVGID_00000150786015080912912000000005465370672448876699_">
				<use xlink:href="#SVGID_00000070815667604246308700000007106822925793278600_"  style="overflow:visible;"/>
			</clipPath>
			<g style="clip-path:url(#SVGID_00000150786015080912912000000005465370672448876699_);">
				<path class="st17" d="M230.3,36.9c-0.3-1.7-1.8-2.9-3.2-2.6c-1.4,0.3-2.3,1.9-2,3.6c0.3,1.7,1.8,2.9,3.2,2.6
					C229.8,40.2,230.6,38.6,230.3,36.9"/>
			</g>
		</g>
		<line class="st30" x1="226.5" y1="32" x2="221.6" y2="31.8"/>
		<line class="st30" x1="243.7" y1="31.1" x2="241.4" y2="32.1"/>
		<g>
			<path class="st30" d="M219.8,38.4c0,0,4.7-7.8,11.6-1.5"/>
			<path class="st32" d="M218.9,40.7c-2.4-3.6-3.2-7.9-0.1-10.3c3.2-2.4,11.6-1.4,12.9,4.7S224.9,49.9,218.9,40.7L218.9,40.7z"/>
			<path class="st32" d="M241.2,40.3c-2.4-3.6-3.2-7.9-0.1-10.3c3.2-2.4,11.6-1.4,12.9,4.7S247.2,49.5,241.2,40.3L241.2,40.3z"/>
		</g>
		<line class="st32" x1="217.2" y1="37.1" x2="209.8" y2="45"/>
		<g>
			<path class="st32" d="M231.6,38.2l2.1,0.4c0,0,3-2.7,5.5,0.3l1.2,0.1"/>
			<path class="st30" d="M233.7,51.7c2-0.9,4.2,1.1,6.6-1"/>
			<path class="st24" d="M190,38.3c0.1,0.3,7.4,6.8-8,3.3c-21.2-4.8-14.4,11.4-17.2,13.2"/>
			<path class="st24" d="M176.9,50c0,0,2.5,3-12.1,4.8c-13.1,1.5-11.1,19.1-6.4,17.3"/>
			<path class="st24" d="M158.5,72c-2.2,1.6-23.1,0-24.6,13.6"/>
			<path class="st7" d="M199.6,82.7c0,0,3.7,11.6,16.3,18.4c12.6,6.8,22.5,2.6,19.3-5.5l15.4,18.5l-10,51.6l-14.2,24.4l-42-7.5
				l12.9-86.9L199.6,82.7L199.6,82.7z"/>
			<path class="st21" d="M201,43.9c-2.6,3-1.8,7.9,1.7,11s8.5,3.1,11.1,0s1.8-7.9-1.7-11S203.6,40.9,201,43.9L201,43.9z"/>
			<path class="st33" d="M210.9,51.9c0,0-1-3.6-6.1-5.9"/>
			<path class="st33" d="M210.5,50.9c0,0-2.5-0.6-4.5,1.6"/>
			<path class="st20" d="M227.4,20.7c-0.3,1.4-0.9,2.2-2.7,4.1c-1.7,1.8-5.1,2-7.1,3.7c-1.8,1.5-1.4,4.6-2.8,6.3
				c-1.2,1.5-3.7,3.3-4.2,6.3c0,0-16.8,2.9-22.9,1.5c-9.7-2.2-16.6-8.6-13.6-12.3c1.4-1.8,3.6-0.6,3.6-0.6
				c-6.4,1.7,6.3,7.8,14.3-2.2c8.6-10.8,10.2-16.6,22.8-17.2C222.4,9.9,228.5,16.2,227.4,20.7L227.4,20.7z"/>
			<path class="st20" d="M179.8,44.5c0,0-1.9-7.7,4.4-17c1.5-2.1,7-3,9.2-4.8c1.4-1.1,3.1-6.2,5.8-7.4c7-3.1,16.2,0,16.2,0
				l-22.8,12.6L179.8,44.5z"/>
			<path class="st24" d="M208.2,26.9c4-13.5,21.8-21.9,31.9-5.7"/>
			<path class="st23" d="M206.1,103c0,1.7-0.4,4.5-1,8.2c-1.1,6.9-3.1,16.8-5.5,28c-0.9,4-1.8,8.1-2.7,12.3c-0.7,3-1.4,6.1-2,9.1
				c-0.1,0.6-0.3,1.2-0.4,1.9c-0.8,3.4-1.5,6.8-2.3,10.2c-0.9,3.7-1.7,7.4-2.5,11c-1.4,5.9-2.7,11.5-3.9,16.6
				c-1.8,7.4-3.3,13.7-4.4,18.2c0,0.1,0,0.2-0.1,0.3c-2,0.1-4,0.2-6,0.3c-0.4-0.5-0.8-1-1.2-1.5c-3.1-3.8-7.5-8.4-13.1-12.7
				c-0.3-0.2-0.6-0.4-0.9-0.6c-2.1-1.5-4.3-3-6.8-4.4c-1.9-1.1-3.8-2-5.9-2.9c-8.8-3.9-19.4-6.1-31.8-4.5h0c0.8-3.1,2.5-5.4,4.7-7.4
				c1-0.9,2.2-1.7,3.4-2.5c1.4-0.9,2.8-1.6,4.4-2.4c0,0,0,0,0,0c0.2-0.1,0.3-0.2,0.5-0.2c0.2-0.1,0.4-0.2,0.6-0.3
				c0.9-0.4,1.8-0.8,2.7-1.2c7.2-3.2,15-6.4,20-12.9c2.6-3.2,4.4-7.3,5.1-12.6c0.2-2,0.4-3.8,0.4-5.7c0-1.3,0-2.5-0.1-3.7
				c-0.3-3.5-0.9-6.8-1.9-9.8c0-0.1,0-0.1-0.1-0.2c-0.3-1-0.7-2-1.1-2.9c-4.4-11.1-12.3-17.4-13.9-18.6c-0.2-0.1-0.3-0.2-0.3-0.2
				c0.7-2.4,1.6-4.8,2.8-7.2c0.1-0.3,0.3-0.6,0.5-0.9c0.8-1.6,1.8-3.2,2.8-4.7c0.2-0.4,0.5-0.7,0.8-1.1c1.9-2.6,4-5,6.4-7.2
				c0.2-0.2,0.3-0.3,0.5-0.5c1.6-1.4,3.3-2.7,5-3.8c2.8-1.8,5.7-3.3,8.8-4.2c1.2-0.4,2.3-0.6,3.5-0.9c4.9-0.9,24-1.6,25.6-1.7
				c0.1,0,0.1,0,0.1,0s1.2,1.1,2.7,3.1c0,0,0,0,0,0v0c0.3,0.4,0.7,0.9,1,1.4c1.1,1.7,2.3,3.9,3.3,6.5c1.2,3.2,2.1,7,2.2,11.3
				C206.1,102.3,206.1,102.6,206.1,103z"/>
			<path class="st20" d="M187.8,163.5c-0.3,7.6-3,13.7-6.1,13.6c-3.1-0.1-5.3-6.4-5.1-14c0.3-7.6,3-13.7,6.1-13.6
				C185.8,149.6,188.1,155.9,187.8,163.5L187.8,163.5z"/>
			<path class="st23" d="M262.2,118.9c-0.7-0.3-17.8-8.7-15,46.5c0,1.1,0.1,2.2,0.2,3.4v0c0.1,1,0.1,2,0.2,3
				c1.3,18.3,5.1,28,5.6,33.3c-10,3.3-20.5,6.1-31.5,8.3c-1.5,0.3-3.1,0.6-4.6,0.9c1.5-5.5,4-13.8,7.6-24.5c0.8-2.2,1.6-4.5,2.4-7
				c1.5-4.2,3.2-8.7,5-13.5c1.2-3.2,2.4-6.3,3.4-9.5c1.2-3.7,2.2-7.3,3.1-10.9c3.3-13.8,4-26.6,1.8-37.8c-0.2-0.9-0.4-1.8-0.6-2.8
				c-0.9-3.9-2.3-7.5-4-11c0,0,0,0,0,0c-0.8-1.5-1.6-3-2.5-4.4c0,0,0,0,0,0c-0.2-0.4-0.5-0.7-0.7-1.1c-0.3-0.5-0.7-0.9-1-1.4
				c-0.4-0.6-0.9-1.1-1.3-1.7c0.1,0,0.5,0,1.4,0.5c0.7,0.3,1.7,0.9,3,1.8c2,1.4,4.9,3.6,8.8,7.2
				C253.2,107.4,261.2,117.5,262.2,118.9C262.1,118.8,262.2,118.8,262.2,118.9z"/>
			<path class="st20" d="M191.1,161.4c0,0,7.8,3.4,12.5,0.5c4.7-2.9,6.8-5.5,10.6-5.8s9,1.3,9.1-1.8c0.1-3.1-6.2-4.6-9.3-3.7
				c-3.1,1-8.5,2.1-8.9-2.4C204.7,143.7,188.2,157,191.1,161.4L191.1,161.4z"/>
			<path class="st21" d="M187.9,161.2c0,0,3.7,1.3,8.8-1.4c5.1-2.7,6.2-9.3,9.5-13s9.1-1.7,10.7-0.4c1.6,1.3,4.2,2.5,4.9,2.7
				c0,0,4.2,6.8,6.1,7.1s3.4-0.5,2-3.1c0,0,2.6,1.6,4.2-0.7c0,0,0.1-0.6-1-1.6s-4.5-3.2-4.5-3.2s-0.1-1.2-1.4-1.3
				c-1.3-0.1-5.6-4.2-5.6-4.2s3.9,1,7.7,1.8s7.8,2.7,8.5-0.6c0,0,0.3-0.7-1.8-1.2c-2.1-0.5-10.9-3.6-10.9-3.6s-14.6-6.5-19.8-3.3
				s-21.3,16.5-21.3,16.5L187.9,161.2L187.9,161.2z"/>
			<polygon class="st21" points="190.3,161 172.6,171.4 170,154.2 183.9,151.6 			"/>
			<path class="st34" d="M221.8,149c0,0,6.1,2.2,6.8-1.5"/>
			<path class="st34" d="M226.8,146.1c0,0-7.4-3.7-10.1-5.3c-2.6-1.6-6-2.7-12.5,0"/>
			<path class="st34" d="M206.5,138.5c0,0,5.9-1.8,8.4-0.8c2.5,1,7.4,4.9,7.4,4.9"/>
			<path class="st34" d="M206.6,137.1c0,0,6.1-1.8,8.2-0.7c2.1,1.1,6.3,5.4,6.3,5.4"/>
			<path class="st34" d="M229.9,153c0,0-4.3-2-6.1-3.5"/>
			<path class="st23" d="M181.7,177c-3.1-0.1-5.3-6.4-5.1-14c0.2-6.7,2.4-12.2,5-13.4l-0.9-9.1l-13.1-3.7L159,86.3
				c0,0-48.9,28.6-62.3,60.5c-13.1,31,58,44.7,85.3,30.2C181.9,177,181.8,177,181.7,177L181.7,177z"/>
			<path class="st26" d="M184.2,175.7L184.2,175.7L184.2,175.7z"/>
			<polygon class="st20" points="164.9,120.5 146.4,145.9 156.2,147.1 			"/>
			<path class="st33" d="M164.9,120.5c0.1,0.6-18.5,25.4-18.5,25.4l34.6,3.5"/>
			<path class="st33" d="M181.3,177.4c0,0-20,3.9-47.4,2.6"/>
			<path class="st33" d="M253,191.8c0,0-6.1-11.4-7.1-41.5"/>
			<line class="st33" x1="197.8" y1="206.3" x2="194.2" y2="215.2"/>
			<path class="st24" d="M213.9,16.1c-20.3-8.9-28.4,11.6-28.4,21"/>
		</g>
	</g>
</g>
</svg>
